…
    ## Warning: Duplicated segments were ignored

    ## Warning: The `x` argument of `as_tibble.matrix()` must have unique column names if
    ## `.name_repair` is omitted as of tibble 2.0.0.
    ## ℹ Using compatibility `.name_repair`.
    ## ℹ The deprecated feature was likely used in the spacetimeLPP package.
    ##   Please report the issue to the authors.

    ## Warning: Duplicated segments were ignored

``` r
distances
```

    ## # A tibble: 28,359 × 5
    ##       Pi P     dist_pi_p   sim type      
    ##    <int> <chr>     <dbl> <int> <chr>     
    ##  1     2 1          448.     1 simulation
    ##  2     3 1         2422.     1 simulation
    ##  3     3 2         2401.     1 simulation
    ##  4     4 1         1479.     1 simulation
    ##  5     4 2         1679.     1 simulation
    ##  6     4 3         1649.     1 simulation
    ##  7     5 1          Inf      1 simulation
    ##  8     5 2          Inf      1 simulation
    ##  9     5 3          Inf      1 simulation
    ## 10     5 4          Inf      1 simulation
    ## # … with 28,349 more rows
…
